6	1091	1.29466E-4	2.52279E-5	1.02652E-5	9.99471E-8	.00808	5.38373E-5
55	11025	7.71647E-5	-2.8001E-5	1.05719E-5	5.46986E-7	-6.1256E-4	-.01676
133	11131	-1.9401E-4	1.85484E-5	5.6912E-7	-3.3312E-7	.00192	-6.7901E-4
136	7584	4.17563E-4	-3.7168E-6	5.82084E-5	-5.6346E-6	.00107	-5.2166E-4
160	10030	.00124	-.01119	4.25879E-7	-2.3235E-7	-6.5942E-5	-.01863
213	283	2.31078E-4	-8.0632E-6	-5.7135E-6	-1.1547E-6	-4.3115E-4	-.00209
217	3011	-7.4601E-4	-1.1039E-4	-1.7258E-5	4.29928E-7	.00459	-.00236
272	8176	-1.6379E-4	4.26035E-6	-1.2226E-5	8.88315E-7	-.01026	-7.0431E-4
278	303	2.56167E-4	3.59889E-5	7.76067E-6	3.99519E-7	-6.1236E-4	-1.3004E-4
299	10646	-8.5724E-5	-4.0662E-6	-1.225E-5	-8.2996E-7	.00396	-2.5695E-5
317	15	1.61514E-5	-8.4181E-6	-9.8999E-6	-3.8199E-6	.00191	-.00896
336	1063	-9.9456E-5	-1.9557E-5	-2.7377E-6	-7.1519E-7	-1.2845E-4	-7.6606E-4
347	10856	-4.6034E-4	-5.7767E-5	4.19634E-6	1.51426E-6	-.00227	-1.4406E-5
352	9008	-6.0699E-5	-1.2582E-5	4.57634E-6	-6.3959E-7	.00731	-6.705E-4
355	1771	-1.5654E-4	1.53335E-5	-8.8611E-7	4.28403E-7	-.00404	-.00258
375	827	7.50545E-4	6.58293E-6	5.85439E-8	-3.8493E-6	-.00334	-.03675
463	7805	-7.236E-4	2.18687E-5	-8.801E-6	-3.0942E-7	.00562	-.00121
533	3039	-8.5126E-5	6.3037E-6	7.25257E-6	1.29852E-6	-.01048	-.00296
560	2723	-3.4293E-4	-1.0156E-5	-1.2022E-5	-1.0416E-6	-.00276	-.00167
586	3087	-7.1182E-5	-7.0549E-6	-2.03E-6	-4.6771E-7	2.79268E-4	-1.2654E-4
596	10222	9.69529E-5	-3.682E-5	2.09998E-5	3.23339E-6	.00746	-.01995
660	7987	5.54193E-5	-3.1784E-6	2.44777E-5	-2.6584E-6	-.00321	9.86151E-4
665	4006	-2.9386E-4	-8.8124E-5	-5.2173E-5	-3.8792E-6	.00547	.0011
687	1898	-4.0159E-5	-8.0684E-6	8.16379E-6	3.76878E-7	.00658	3.37194E-5
693	8692	-2.7294E-4	2.18064E-6	2.29148E-5	1.90283E-6	-.00358	-7.1144E-4
745	2082	.00306	.01073	1.29435E-5	1.48551E-6	-.00251	-.00121
768	9008	3.60119E-4	5.36173E-5	-8.8878E-7	1.12759E-6	-7.6813E-5	-.01047
814	1537	9.13587E-5	1.79381E-5	-1.4731E-5	1.06557E-6	.00147	6.22219E-4
842	3987	8.04192E-5	-4.5597E-6	7.55306E-6	-1.6568E-6	-.00174	-.00334
860	5825	-1.9336E-5	9.95874E-5	4.03299E-6	2.07338E-4	-.00296	-.01102
935	8991	1.21848E-4	3.60411E-5	-8.5894E-6	-4.5291E-7	.01126	-.00489
943	560	1.73665E-4	-3.116E-6	-2.3408E-6	-1.0637E-6	.00831	1.54949E-4
960	2642	-8.8304E-4	-1.4806E-5	-3.7021E-6	2.80401E-6	-.00508	-.00196
998	140	-4.9489E-4	1.45528E-4	-2.2663E-5	-2.5431E-6	.00777	-.01631
1029	854	-5.3158E-4	3.59529E-5	-7.6459E-6	1.60685E-6	-.00147	-.00285
1055	3246	-.00152	-8.9508E-7	-5.9368E-6	8.13798E-6	.00183	-.00354
1132	3915	4.45052E-5	-1.9904E-5	2.14909E-5	5.59649E-7	-.00207	-.00183
1175	24	-4.7138E-5	1.04087E-5	-2.2371E-6	1.72416E-7	-.00553	-4.238E-4
1176	9734	-.00137	.01069	4.73645E-6	2.02749E-7	-.0012	-.02805
